C:\eclipse-workspace\SG-Cognizant-Assignment\src\test\java\com\cognizant\pages\ApplicationFormPage.java
C:\eclipse-workspace\SG-Cognizant-Assignment\src\test\java\com\cognizant\pages\LoginPage.java
C:\eclipse-workspace\SG-Cognizant-Assignment\src\test\java\com\cognizant\elements\LoginPageElements.java
C:\eclipse-workspace\SG-Cognizant-Assignment\src\test\java\com\cognizant\pages\HomePage.java
C:\eclipse-workspace\SG-Cognizant-Assignment\src\test\java\com\cognizant\elements\HomePageElements.java
C:\eclipse-workspace\SG-Cognizant-Assignment\src\test\java\com\cognizant\step_defs\GrantApplicationSteps.java
C:\eclipse-workspace\SG-Cognizant-Assignment\src\test\java\com\cognizant\elements\ApplicationFormElements.java
C:\eclipse-workspace\SG-Cognizant-Assignment\src\test\java\com\cognizant\pages\LandingPage.java
C:\eclipse-workspace\SG-Cognizant-Assignment\src\test\java\com\cognizant\elements\LandingPageElements.java
C:\eclipse-workspace\SG-Cognizant-Assignment\src\test\java\com\cognizant\pages\Common.java
C:\eclipse-workspace\SG-Cognizant-Assignment\src\test\java\com\cognizant\step_defs\AbstractBase.java
C:\eclipse-workspace\SG-Cognizant-Assignment\src\test\java\com\cognizant\test_runner\TestRunner.java
